デッキ名,デッキコード
カメックス,cxcDDx-T0gxuQ-GD84K8
ドンカラス,cxDKcc-1P3Mtq-KcJDxa
ばらまき,MMp3pX-kJCgE3-XSUppM
カメックスv2,FvVwfV-dS61Ww-vfVVVw
カメックスv3,Sp3MMX-MRbPKx-M22SMM
ばらまき改,YxK8Dc-ojAMGo-xxxDcc
ジラサンデンリュウ,X3Myyp-axuzhM-XMM2XS
ジラサンデンリュウv2,cKYDJc-WAcB4u-xx4xDc
ジラサンデンリュウv3,5kw5FV-riXQ1v-fwV1V5
ジラサンデンリュウv4,DxxKxc-LHTOWH-K8DxcY
ジラサンデンリュウv4,cYDD4x-wZbE1v-DcK8xx
ジラサンダース,pXMEM3-gXIojV-UM2yMS
